━━━━━━━━━━━━━━━━━━━━━━━━━━━━━━━━━━━━━━━━━━━━━━━━━━━━━━━━━━━━━━━━━━━━━━━━━━━━━━━
 Language            Files        Lines         Code     Comments       Blanks
━━━━━━━━━━━━━━━━━━━━━━━━━━━━━━━━━━━━━━━━━━━━━━━━━━━━━━━━━━━━━━━━━━━━━━━━━━━━━━━
 ReStructuredText        1           69           47            0           22
───────────────────────────────────────────────────────────────────────────────
 ./SECURITY.rst                      69           47            0           22
───────────────────────────────────────────────────────────────────────────────
 Markdown                2          153            0           98           55
───────────────────────────────────────────────────────────────────────────────
 ./SECURITY.md                       61            0           39           22
 ./README.md                         92            0           59           33
───────────────────────────────────────────────────────────────────────────────
 Plain Text             15          262            0          209           53
───────────────────────────────────────────────────────────────────────────────
 ./dep/placeholder.txt                0            0            0            0
 ./example/placeholder.txt            0            0            0            0
 ./robots.txt                        74            0           65            9
 ./dataset/placeholder.txt            0            0            0            0
 ./humans.txt                        39            0           12           27
 ./security.txt                      34            0           27            7
 ./test/placeholder.txt               0            0            0            0
 |corecard/placeholder.txt            0            0            0            0
 ./tools/placeholder.txt              0            0            0            0
 |documentation/robots.txt           74            0           65            9
 ./src/placeholder.txt                0            0            0            0
 ./content_summary.txt                9            0            9            0
 ./structure.txt                     32            0           31            1
 ./content_long_list.txt              0            0            0            0
 ./res/placeholder.txt                0            0            0            0
━━━━━━━━━━━━━━━━━━━━━━━━━━━━━━━━━━━━━━━━━━━━━━━━━━━━━━━━━━━━━━━━━━━━━━━━━━━━━━━
 Total                  18          484           47          307          130
━━━━━━━━━━━━━━━━━━━━━━━━━━━━━━━━━━━━━━━━━━━━━━━━━━━━━━━━━━━━━━━━━━━━━━━━━━━━━━━
